{
    "asset" : {
        "generator" : "Khronos glTF Blender I/O v1.2.75",
        "version" : "2.0"
    },
    "scene" : 0,
    "scenes" : [
        {
            "name" : "Scene",
            "nodes" : [
                7
            ]
        }
    ],
    "nodes" : [
        {
            "name" : "Bone.001",
            "rotation" : [
                0.027336042374372482,
                0.0026335723232477903,
                0.07948113232851028,
                0.9964580535888672
            ],
            "scale" : [
                0.9999999403953552,
                1,
                1
            ],
            "translation" : [
                2.6733687263913453e-08,
                1.0562316179275513,
                -2.0721927285194397e-08
            ]
        },
        {
            "children" : [
                0
            ],
            "name" : "Bone.005",
            "rotation" : [
                -0.02430269867181778,
                0.06355761736631393,
                0.5692827701568604,
                0.8193211555480957
            ],
            "translation" : [
                -2.3040047381073236e-07,
                0.35833504796028137,
                -9.778887033462524e-09
            ]
        },
        {
            "children" : [
                1
            ],
            "name" : "Bone.004",
            "rotation" : [
                0.06616222858428955,
                -0.07099703699350357,
                0.6124156713485718,
                0.7845566272735596
            ],
            "scale" : [
                0.9999998807907104,
                0.9999999403953552,
                1
            ],
            "translation" : [
                4.721596269519068e-08,
                0.5187637209892273,
                2.3166649043560028e-08
            ]
        },
        {
            "children" : [
                2
            ],
            "name" : "Bone.003",
            "rotation" : [
                0.06555827707052231,
                -0.06485854834318161,
                0.15562087297439575,
                0.9835027456283569
            ],
            "translation" : [
                0,
                1,
                0
            ]
        },
        {
            "children" : [
                3
            ],
            "name" : "Bone",
            "rotation" : [
                -0.0012509421212598681,
                -0.05928622931241989,
                0.06510563939809799,
                0.99611496925354
            ],
            "scale" : [
                0.9999999403953552,
                1,
                1
            ],
            "translation" : [
                -0.0002408361033303663,
                0.029129760339856148,
                0.2643616497516632
            ]
        },
        {
            "name" : "Bone.006",
            "rotation" : [
                0.7064013481140137,
                -0.08813247829675674,
                -0.7010522484779358,
                0.041900601238012314
            ],
            "scale" : [
                1,
                1,
                0.9999999403953552
            ],
            "translation" : [
                9.031316585605964e-05,
                -0.010923661291599274,
                0.3080577850341797
            ]
        },
        {
            "mesh" : 0,
            "name" : "fyodor-wgj-res-simple-1",
            "skin" : 0
        },
        {
            "children" : [
                6,
                4,
                5
            ],
            "name" : "Armature",
            "rotation" : [
                0,
                0,
                -0.0041337390430271626,
                0.9999914765357971
            ],
            "scale" : [
                1.2932177782058716,
                1.2932177782058716,
                1.2932177782058716
            ],
            "translation" : [
                0.29949575662612915,
                0.8419783711433411,
                0
            ]
        }
    ],
    "animations" : [
        {
            "channels" : [
                {
                    "sampler" : 0,
                    "target" : {
                        "node" : 4,
                        "path" : "translation"
                    }
                },
                {
                    "sampler" : 1,
                    "target" : {
                        "node" : 4,
                        "path" : "rotation"
                    }
                },
                {
                    "sampler" : 2,
                    "target" : {
                        "node" : 4,
                        "path" : "scale"
                    }
                },
                {
                    "sampler" : 3,
                    "target" : {
                        "node" : 3,
                        "path" : "translation"
                    }
                },
                {
                    "sampler" : 4,
                    "target" : {
                        "node" : 3,
                        "path" : "rotation"
                    }
                },
                {
                    "sampler" : 5,
                    "target" : {
                        "node" : 3,
                        "path" : "scale"
                    }
                },
                {
                    "sampler" : 6,
                    "target" : {
                        "node" : 2,
                        "path" : "translation"
                    }
                },
                {
                    "sampler" : 7,
                    "target" : {
                        "node" : 2,
                        "path" : "rotation"
                    }
                },
                {
                    "sampler" : 8,
                    "target" : {
                        "node" : 2,
                        "path" : "scale"
                    }
                },
                {
                    "sampler" : 9,
                    "target" : {
                        "node" : 1,
                        "path" : "translation"
                    }
                },
                {
                    "sampler" : 10,
                    "target" : {
                        "node" : 1,
                        "path" : "rotation"
                    }
                },
                {
                    "sampler" : 11,
                    "target" : {
                        "node" : 1,
                        "path" : "scale"
                    }
                },
                {
                    "sampler" : 12,
                    "target" : {
                        "node" : 0,
                        "path" : "translation"
                    }
                },
                {
                    "sampler" : 13,
                    "target" : {
                        "node" : 0,
                        "path" : "rotation"
                    }
                },
                {
                    "sampler" : 14,
                    "target" : {
                        "node" : 0,
                        "path" : "scale"
                    }
                },
                {
                    "sampler" : 15,
                    "target" : {
                        "node" : 5,
                        "path" : "translation"
                    }
                },
                {
                    "sampler" : 16,
                    "target" : {
                        "node" : 5,
                        "path" : "rotation"
                    }
                },
                {
                    "sampler" : 17,
                    "target" : {
                        "node" : 5,
                        "path" : "scale"
                    }
                }
            ],
            "name" : "Idle",
            "samplers" : [
                {
                    "input" : 25,
                    "interpolation" : "LINEAR",
                    "output" : 26
                },
                {
                    "input" : 25,
                    "interpolation" : "LINEAR",
                    "output" : 27
                },
                {
                    "input" : 25,
                    "interpolation" : "LINEAR",
                    "output" : 28
                },
                {
                    "input" : 25,
                    "interpolation" : "LINEAR",
                    "output" : 29
                },
                {
                    "input" : 25,
                    "interpolation" : "LINEAR",
                    "output" : 30
                },
                {
                    "input" : 25,
                    "interpolation" : "LINEAR",
                    "output" : 31
                },
                {
                    "input" : 25,
                    "interpolation" : "LINEAR",
                    "output" : 32
                },
                {
                    "input" : 25,
                    "interpolation" : "LINEAR",
                    "output" : 33
                },
                {
                    "input" : 25,
                    "interpolation" : "LINEAR",
                    "output" : 34
                },
                {
                    "input" : 25,
                    "interpolation" : "LINEAR",
                    "output" : 35
                },
                {
                    "input" : 25,
                    "interpolation" : "LINEAR",
                    "output" : 36
                },
                {
                    "input" : 25,
                    "interpolation" : "LINEAR",
                    "output" : 37
                },
                {
                    "input" : 25,
                    "interpolation" : "LINEAR",
                    "output" : 38
                },
                {
                    "input" : 25,
                    "interpolation" : "LINEAR",
                    "output" : 39
                },
                {
                    "input" : 25,
                    "interpolation" : "LINEAR",
                    "output" : 40
                },
                {
                    "input" : 25,
                    "interpolation" : "LINEAR",
                    "output" : 41
                },
                {
                    "input" : 25,
                    "interpolation" : "LINEAR",
                    "output" : 42
                },
                {
                    "input" : 25,
                    "interpolation" : "LINEAR",
                    "output" : 43
                }
            ]
        },
        {
            "channels" : [
                {
                    "sampler" : 0,
                    "target" : {
                        "node" : 4,
                        "path" : "translation"
                    }
                },
                {
                    "sampler" : 1,
                    "target" : {
                        "node" : 4,
                        "path" : "rotation"
                    }
                },
                {
                    "sampler" : 2,
                    "target" : {
                        "node" : 4,
                        "path" : "scale"
                    }
                },
                {
                    "sampler" : 3,
                    "target" : {
                        "node" : 3,
                        "path" : "translation"
                    }
                },
                {
                    "sampler" : 4,
                    "target" : {
                        "node" : 3,
                        "path" : "rotation"
                    }
                },
                {
                    "sampler" : 5,
                    "target" : {
                        "node" : 3,
                        "path" : "scale"
                    }
                },
                {
                    "sampler" : 6,
                    "target" : {
                        "node" : 2,
                        "path" : "translation"
                    }
                },
                {
                    "sampler" : 7,
                    "target" : {
                        "node" : 2,
                        "path" : "rotation"
                    }
                },
                {
                    "sampler" : 8,
                    "target" : {
                        "node" : 2,
                        "path" : "scale"
                    }
                },
                {
                    "sampler" : 9,
                    "target" : {
                        "node" : 1,
                        "path" : "translation"
                    }
                },
                {
                    "sampler" : 10,
                    "target" : {
                        "node" : 1,
                        "path" : "rotation"
                    }
                },
                {
                    "sampler" : 11,
                    "target" : {
                        "node" : 1,
                        "path" : "scale"
                    }
                },
                {
                    "sampler" : 12,
                    "target" : {
                        "node" : 0,
                        "path" : "translation"
                    }
                },
                {
                    "sampler" : 13,
                    "target" : {
                        "node" : 0,
                        "path" : "rotation"
                    }
                },
                {
                    "sampler" : 14,
                    "target" : {
                        "node" : 0,
                        "path" : "scale"
                    }
                },
                {
                    "sampler" : 15,
                    "target" : {
                        "node" : 5,
                        "path" : "translation"
                    }
                },
                {
                    "sampler" : 16,
                    "target" : {
                        "node" : 5,
                        "path" : "rotation"
                    }
                },
                {
                    "sampler" : 17,
                    "target" : {
                        "node" : 5,
                        "path" : "scale"
                    }
                }
            ],
            "name" : "Run",
            "samplers" : [
                {
                    "input" : 44,
                    "interpolation" : "LINEAR",
                    "output" : 45
                },
                {
                    "input" : 44,
                    "interpolation" : "LINEAR",
                    "output" : 46
                },
                {
                    "input" : 44,
                    "interpolation" : "LINEAR",
                    "output" : 47
                },
                {
                    "input" : 44,
                    "interpolation" : "LINEAR",
                    "output" : 48
                },
                {
                    "input" : 44,
                    "interpolation" : "LINEAR",
                    "output" : 49
                },
                {
                    "input" : 44,
                    "interpolation" : "LINEAR",
                    "output" : 50
                },
                {
                    "input" : 44,
                    "interpolation" : "LINEAR",
                    "output" : 51
                },
                {
                    "input" : 44,
                    "interpolation" : "LINEAR",
                    "output" : 52
                },
                {
                    "input" : 44,
                    "interpolation" : "LINEAR",
                    "output" : 53
                },
                {
                    "input" : 44,
                    "interpolation" : "LINEAR",
                    "output" : 54
                },
                {
                    "input" : 44,
                    "interpolation" : "LINEAR",
                    "output" : 55
                },
                {
                    "input" : 44,
                    "interpolation" : "LINEAR",
                    "output" : 56
                },
                {
                    "input" : 44,
                    "interpolation" : "LINEAR",
                    "output" : 57
                },
                {
                    "input" : 44,
                    "interpolation" : "LINEAR",
                    "output" : 58
                },
                {
                    "input" : 44,
                    "interpolation" : "LINEAR",
                    "output" : 59
                },
                {
                    "input" : 44,
                    "interpolation" : "LINEAR",
                    "output" : 60
                },
                {
                    "input" : 44,
                    "interpolation" : "LINEAR",
                    "output" : 61
                },
                {
                    "input" : 44,
                    "interpolation" : "LINEAR",
                    "output" : 62
                }
            ]
        }
    ],
    "materials" : [
        {
            "doubleSided" : true,
            "emissiveFactor" : [
                0,
                0,
                0
            ],
            "name" : "Layer_2_mtl",
            "pbrMetallicRoughness" : {
                "baseColorTexture" : {
                    "index" : 0,
                    "texCoord" : 0
                },
                "metallicFactor" : 0,
                "roughnessFactor" : 1
            }
        },
        {
            "doubleSided" : true,
            "emissiveFactor" : [
                0,
                0,
                0
            ],
            "name" : "Layer_3_mtl",
            "pbrMetallicRoughness" : {
                "baseColorTexture" : {
                    "index" : 1,
                    "texCoord" : 0
                },
                "metallicFactor" : 0,
                "roughnessFactor" : 1
            }
        },
        {
            "doubleSided" : true,
            "emissiveFactor" : [
                0,
                0,
                0
            ],
            "name" : "Layer_4_mtl",
            "pbrMetallicRoughness" : {
                "baseColorTexture" : {
                    "index" : 2,
                    "texCoord" : 0
                },
                "metallicFactor" : 0,
                "roughnessFactor" : 1
            }
        },
        {
            "doubleSided" : true,
            "emissiveFactor" : [
                0,
                0,
                0
            ],
            "name" : "Layer_1_mtl",
            "pbrMetallicRoughness" : {
                "baseColorTexture" : {
                    "index" : 3,
                    "texCoord" : 0
                },
                "metallicFactor" : 0,
                "roughnessFactor" : 1
            }
        }
    ],
    "meshes" : [
        {
            "name" : "fyodor-wgj-res-simple-1",
            "primitives" : [
                {
                    "attributes" : {
                        "POSITION" : 0,
                        "NORMAL" : 1,
                        "TEXCOORD_0" : 2,
                        "JOINTS_0" : 3,
                        "WEIGHTS_0" : 4
                    },
                    "indices" : 5,
                    "material" : 0
                },
                {
                    "attributes" : {
                        "POSITION" : 6,
                        "NORMAL" : 7,
                        "TEXCOORD_0" : 8,
                        "JOINTS_0" : 9,
                        "WEIGHTS_0" : 10
                    },
                    "indices" : 11,
                    "material" : 1
                },
                {
                    "attributes" : {
                        "POSITION" : 12,
                        "NORMAL" : 13,
                        "TEXCOORD_0" : 14,
                        "JOINTS_0" : 15,
                        "WEIGHTS_0" : 16
                    },
                    "indices" : 17,
                    "material" : 2
                },
                {
                    "attributes" : {
                        "POSITION" : 18,
                        "NORMAL" : 19,
                        "TEXCOORD_0" : 20,
                        "JOINTS_0" : 21,
                        "WEIGHTS_0" : 22
                    },
                    "indices" : 23,
                    "material" : 3
                }
            ]
        }
    ],
    "textures" : [
        {
            "source" : 0
        },
        {
            "source" : 1
        },
        {
            "source" : 2
        },
        {
            "source" : 3
        }
    ],
    "images" : [
        {
            "mimeType" : "image/png",
            "name" : "fyodor-wgj-res-simple-1_Layer_2",
            "uri" : "fyodor-wgj-res-simple-1_Layer_2.png"
        },
        {
            "mimeType" : "image/png",
            "name" : "fyodor-wgj-res-simple-1_Layer_3",
            "uri" : "fyodor-wgj-res-simple-1_Layer_3.png"
        },
        {
            "mimeType" : "image/png",
            "name" : "fyodor-wgj-res-simple-1_Layer_4",
            "uri" : "fyodor-wgj-res-simple-1_Layer_4.png"
        },
        {
            "mimeType" : "image/png",
            "name" : "fyodor-wgj-res-simple-1_Layer_1",
            "uri" : "fyodor-wgj-res-simple-1_Layer_1.png"
        }
    ],
    "skins" : [
        {
            "inverseBindMatrices" : 24,
            "joints" : [
                4,
                3,
                2,
                1,
                0,
                5
            ],
            "name" : "Armature"
        }
    ],
    "accessors" : [
        {
            "bufferView" : 0,
            "componentType" : 5126,
            "count" : 94,
            "max" : [
                0.348308801651001,
                0.7612701058387756,
                0.32427093386650085
            ],
            "min" : [
                0.13350355625152588,
                -0.012890109792351723,
                0.11525015532970428
            ],
            "type" : "VEC3"
        },
        {
            "bufferView" : 1,
            "componentType" : 5126,
            "count" : 94,
            "type" : "VEC3"
        },
        {
            "bufferView" : 2,
            "componentType" : 5126,
            "count" : 94,
            "type" : "VEC2"
        },
        {
            "bufferView" : 3,
            "componentType" : 5123,
            "count" : 94,
            "type" : "VEC4"
        },
        {
            "bufferView" : 4,
            "componentType" : 5126,
            "count" : 94,
            "type" : "VEC4"
        },
        {
            "bufferView" : 5,
            "componentType" : 5123,
            "count" : 408,
            "type" : "SCALAR"
        },
        {
            "bufferView" : 6,
            "componentType" : 5126,
            "count" : 488,
            "max" : [
                0.418484091758728,
                2.9173004627227783,
                0.49272626638412476
            ],
            "min" : [
                -0.7983381152153015,
                0.015765700489282608,
                0.10149697214365005
            ],
            "type" : "VEC3"
        },
        {
            "bufferView" : 7,
            "componentType" : 5126,
            "count" : 488,
            "type" : "VEC3"
        },
        {
            "bufferView" : 8,
            "componentType" : 5126,
            "count" : 488,
            "type" : "VEC2"
        },
        {
            "bufferView" : 9,
            "componentType" : 5123,
            "count" : 488,
            "type" : "VEC4"
        },
        {
            "bufferView" : 10,
            "componentType" : 5126,
            "count" : 488,
            "type" : "VEC4"
        },
        {
            "bufferView" : 11,
            "componentType" : 5123,
            "count" : 2160,
            "type" : "SCALAR"
        },
        {
            "bufferView" : 12,
            "componentType" : 5126,
            "count" : 235,
            "max" : [
                0.6224362850189209,
                1.8646641969680786,
                0.604697585105896
            ],
            "min" : [
                0.05287012457847595,
                1.3572189807891846,
                0.2637963891029358
            ],
            "type" : "VEC3"
        },
        {
            "bufferView" : 13,
            "componentType" : 5126,
            "count" : 235,
            "type" : "VEC3"
        },
        {
            "bufferView" : 14,
            "componentType" : 5126,
            "count" : 235,
            "type" : "VEC2"
        },
        {
            "bufferView" : 15,
            "componentType" : 5123,
            "count" : 235,
            "type" : "VEC4"
        },
        {
            "bufferView" : 16,
            "componentType" : 5126,
            "count" : 235,
            "type" : "VEC4"
        },
        {
            "bufferView" : 17,
            "componentType" : 5123,
            "count" : 1104,
            "type" : "SCALAR"
        },
        {
            "bufferView" : 18,
            "componentType" : 5126,
            "count" : 643,
            "max" : [
                0.6602916121482849,
                2.430738687515259,
                0.5816170573234558
            ],
            "min" : [
                -0.10394560545682907,
                0.6390715837478638,
                -0.17163348197937012
            ],
            "type" : "VEC3"
        },
        {
            "bufferView" : 19,
            "componentType" : 5126,
            "count" : 643,
            "type" : "VEC3"
        },
        {
            "bufferView" : 20,
            "componentType" : 5126,
            "count" : 643,
            "type" : "VEC2"
        },
        {
            "bufferView" : 21,
            "componentType" : 5123,
            "count" : 643,
            "type" : "VEC4"
        },
        {
            "bufferView" : 22,
            "componentType" : 5126,
            "count" : 643,
            "type" : "VEC4"
        },
        {
            "bufferView" : 23,
            "componentType" : 5123,
            "count" : 3348,
            "type" : "SCALAR"
        },
        {
            "bufferView" : 24,
            "componentType" : 5126,
            "count" : 6,
            "type" : "MAT4"
        },
        {
            "bufferView" : 25,
            "componentType" : 5126,
            "count" : 100,
            "max" : [
                4.166666666666667
            ],
            "min" : [
                0.041666666666666664
            ],
            "type" : "SCALAR"
        },
        {
            "bufferView" : 26,
            "componentType" : 5126,
            "count" : 100,
            "type" : "VEC3"
        },
        {
            "bufferView" : 27,
            "componentType" : 5126,
            "count" : 100,
            "type" : "VEC4"
        },
        {
            "bufferView" : 28,
            "componentType" : 5126,
            "count" : 100,
            "type" : "VEC3"
        },
        {
            "bufferView" : 29,
            "componentType" : 5126,
            "count" : 100,
            "type" : "VEC3"
        },
        {
            "bufferView" : 30,
            "componentType" : 5126,
            "count" : 100,
            "type" : "VEC4"
        },
        {
            "bufferView" : 31,
            "componentType" : 5126,
            "count" : 100,
            "type" : "VEC3"
        },
        {
            "bufferView" : 32,
            "componentType" : 5126,
            "count" : 100,
            "type" : "VEC3"
        },
        {
            "bufferView" : 33,
            "componentType" : 5126,
            "count" : 100,
            "type" : "VEC4"
        },
        {
            "bufferView" : 34,
            "componentType" : 5126,
            "count" : 100,
            "type" : "VEC3"
        },
        {
            "bufferView" : 35,
            "componentType" : 5126,
            "count" : 100,
            "type" : "VEC3"
        },
        {
            "bufferView" : 36,
            "componentType" : 5126,
            "count" : 100,
            "type" : "VEC4"
        },
        {
            "bufferView" : 37,
            "componentType" : 5126,
            "count" : 100,
            "type" : "VEC3"
        },
        {
            "bufferView" : 38,
            "componentType" : 5126,
            "count" : 100,
            "type" : "VEC3"
        },
        {
            "bufferView" : 39,
            "componentType" : 5126,
            "count" : 100,
            "type" : "VEC4"
        },
        {
            "bufferView" : 40,
            "componentType" : 5126,
            "count" : 100,
            "type" : "VEC3"
        },
        {
            "bufferView" : 41,
            "componentType" : 5126,
            "count" : 100,
            "type" : "VEC3"
        },
        {
            "bufferView" : 42,
            "componentType" : 5126,
            "count" : 100,
            "type" : "VEC4"
        },
        {
            "bufferView" : 43,
            "componentType" : 5126,
            "count" : 100,
            "type" : "VEC3"
        },
        {
            "bufferView" : 44,
            "componentType" : 5126,
            "count" : 41,
            "max" : [
                1.6666666666666667
            ],
            "min" : [
                0
            ],
            "type" : "SCALAR"
        },
        {
            "bufferView" : 45,
            "componentType" : 5126,
            "count" : 41,
            "type" : "VEC3"
        },
        {
            "bufferView" : 46,
            "componentType" : 5126,
            "count" : 41,
            "type" : "VEC4"
        },
        {
            "bufferView" : 47,
            "componentType" : 5126,
            "count" : 41,
            "type" : "VEC3"
        },
        {
            "bufferView" : 48,
            "componentType" : 5126,
            "count" : 41,
            "type" : "VEC3"
        },
        {
            "bufferView" : 49,
            "componentType" : 5126,
            "count" : 41,
            "type" : "VEC4"
        },
        {
            "bufferView" : 50,
            "componentType" : 5126,
            "count" : 41,
            "type" : "VEC3"
        },
        {
            "bufferView" : 51,
            "componentType" : 5126,
            "count" : 41,
            "type" : "VEC3"
        },
        {
            "bufferView" : 52,
            "componentType" : 5126,
            "count" : 41,
            "type" : "VEC4"
        },
        {
            "bufferView" : 53,
            "componentType" : 5126,
            "count" : 41,
            "type" : "VEC3"
        },
        {
            "bufferView" : 54,
            "componentType" : 5126,
            "count" : 41,
            "type" : "VEC3"
        },
        {
            "bufferView" : 55,
            "componentType" : 5126,
            "count" : 41,
            "type" : "VEC4"
        },
        {
            "bufferView" : 56,
            "componentType" : 5126,
            "count" : 41,
            "type" : "VEC3"
        },
        {
            "bufferView" : 57,
            "componentType" : 5126,
            "count" : 41,
            "type" : "VEC3"
        },
        {
            "bufferView" : 58,
            "componentType" : 5126,
            "count" : 41,
            "type" : "VEC4"
        },
        {
            "bufferView" : 59,
            "componentType" : 5126,
            "count" : 41,
            "type" : "VEC3"
        },
        {
            "bufferView" : 60,
            "componentType" : 5126,
            "count" : 41,
            "type" : "VEC3"
        },
        {
            "bufferView" : 61,
            "componentType" : 5126,
            "count" : 41,
            "type" : "VEC4"
        },
        {
            "bufferView" : 62,
            "componentType" : 5126,
            "count" : 41,
            "type" : "VEC3"
        }
    ],
    "bufferViews" : [
        {
            "buffer" : 0,
            "byteLength" : 1128,
            "byteOffset" : 0
        },
        {
            "buffer" : 0,
            "byteLength" : 1128,
            "byteOffset" : 1128
        },
        {
            "buffer" : 0,
            "byteLength" : 752,
            "byteOffset" : 2256
        },
        {
            "buffer" : 0,
            "byteLength" : 752,
            "byteOffset" : 3008
        },
        {
            "buffer" : 0,
            "byteLength" : 1504,
            "byteOffset" : 3760
        },
        {
            "buffer" : 0,
            "byteLength" : 816,
            "byteOffset" : 5264
        },
        {
            "buffer" : 0,
            "byteLength" : 5856,
            "byteOffset" : 6080
        },
        {
            "buffer" : 0,
            "byteLength" : 5856,
            "byteOffset" : 11936
        },
        {
            "buffer" : 0,
            "byteLength" : 3904,
            "byteOffset" : 17792
        },
        {
            "buffer" : 0,
            "byteLength" : 3904,
            "byteOffset" : 21696
        },
        {
            "buffer" : 0,
            "byteLength" : 7808,
            "byteOffset" : 25600
        },
        {
            "buffer" : 0,
            "byteLength" : 4320,
            "byteOffset" : 33408
        },
        {
            "buffer" : 0,
            "byteLength" : 2820,
            "byteOffset" : 37728
        },
        {
            "buffer" : 0,
            "byteLength" : 2820,
            "byteOffset" : 40548
        },
        {
            "buffer" : 0,
            "byteLength" : 1880,
            "byteOffset" : 43368
        },
        {
            "buffer" : 0,
            "byteLength" : 1880,
            "byteOffset" : 45248
        },
        {
            "buffer" : 0,
            "byteLength" : 3760,
            "byteOffset" : 47128
        },
        {
            "buffer" : 0,
            "byteLength" : 2208,
            "byteOffset" : 50888
        },
        {
            "buffer" : 0,
            "byteLength" : 7716,
            "byteOffset" : 53096
        },
        {
            "buffer" : 0,
            "byteLength" : 7716,
            "byteOffset" : 60812
        },
        {
            "buffer" : 0,
            "byteLength" : 5144,
            "byteOffset" : 68528
        },
        {
            "buffer" : 0,
            "byteLength" : 5144,
            "byteOffset" : 73672
        },
        {
            "buffer" : 0,
            "byteLength" : 10288,
            "byteOffset" : 78816
        },
        {
            "buffer" : 0,
            "byteLength" : 6696,
            "byteOffset" : 89104
        },
        {
            "buffer" : 0,
            "byteLength" : 384,
            "byteOffset" : 95800
        },
        {
            "buffer" : 0,
            "byteLength" : 400,
            "byteOffset" : 96184
        },
        {
            "buffer" : 0,
            "byteLength" : 1200,
            "byteOffset" : 96584
        },
        {
            "buffer" : 0,
            "byteLength" : 1600,
            "byteOffset" : 97784
        },
        {
            "buffer" : 0,
            "byteLength" : 1200,
            "byteOffset" : 99384
        },
        {
            "buffer" : 0,
            "byteLength" : 1200,
            "byteOffset" : 100584
        },
        {
            "buffer" : 0,
            "byteLength" : 1600,
            "byteOffset" : 101784
        },
        {
            "buffer" : 0,
            "byteLength" : 1200,
            "byteOffset" : 103384
        },
        {
            "buffer" : 0,
            "byteLength" : 1200,
            "byteOffset" : 104584
        },
        {
            "buffer" : 0,
            "byteLength" : 1600,
            "byteOffset" : 105784
        },
        {
            "buffer" : 0,
            "byteLength" : 1200,
            "byteOffset" : 107384
        },
        {
            "buffer" : 0,
            "byteLength" : 1200,
            "byteOffset" : 108584
        },
        {
            "buffer" : 0,
            "byteLength" : 1600,
            "byteOffset" : 109784
        },
        {
            "buffer" : 0,
            "byteLength" : 1200,
            "byteOffset" : 111384
        },
        {
            "buffer" : 0,
            "byteLength" : 1200,
            "byteOffset" : 112584
        },
        {
            "buffer" : 0,
            "byteLength" : 1600,
            "byteOffset" : 113784
        },
        {
            "buffer" : 0,
            "byteLength" : 1200,
            "byteOffset" : 115384
        },
        {
            "buffer" : 0,
            "byteLength" : 1200,
            "byteOffset" : 116584
        },
        {
            "buffer" : 0,
            "byteLength" : 1600,
            "byteOffset" : 117784
        },
        {
            "buffer" : 0,
            "byteLength" : 1200,
            "byteOffset" : 119384
        },
        {
            "buffer" : 0,
            "byteLength" : 164,
            "byteOffset" : 120584
        },
        {
            "buffer" : 0,
            "byteLength" : 492,
            "byteOffset" : 120748
        },
        {
            "buffer" : 0,
            "byteLength" : 656,
            "byteOffset" : 121240
        },
        {
            "buffer" : 0,
            "byteLength" : 492,
            "byteOffset" : 121896
        },
        {
            "buffer" : 0,
            "byteLength" : 492,
            "byteOffset" : 122388
        },
        {
            "buffer" : 0,
            "byteLength" : 656,
            "byteOffset" : 122880
        },
        {
            "buffer" : 0,
            "byteLength" : 492,
            "byteOffset" : 123536
        },
        {
            "buffer" : 0,
            "byteLength" : 492,
            "byteOffset" : 124028
        },
        {
            "buffer" : 0,
            "byteLength" : 656,
            "byteOffset" : 124520
        },
        {
            "buffer" : 0,
            "byteLength" : 492,
            "byteOffset" : 125176
        },
        {
            "buffer" : 0,
            "byteLength" : 492,
            "byteOffset" : 125668
        },
        {
            "buffer" : 0,
            "byteLength" : 656,
            "byteOffset" : 126160
        },
        {
            "buffer" : 0,
            "byteLength" : 492,
            "byteOffset" : 126816
        },
        {
            "buffer" : 0,
            "byteLength" : 492,
            "byteOffset" : 127308
        },
        {
            "buffer" : 0,
            "byteLength" : 656,
            "byteOffset" : 127800
        },
        {
            "buffer" : 0,
            "byteLength" : 492,
            "byteOffset" : 128456
        },
        {
            "buffer" : 0,
            "byteLength" : 492,
            "byteOffset" : 128948
        },
        {
            "buffer" : 0,
            "byteLength" : 656,
            "byteOffset" : 129440
        },
        {
            "buffer" : 0,
            "byteLength" : 492,
            "byteOffset" : 130096
        }
    ],
    "buffers" : [
        {
            "byteLength" : 130588,
            "uri" : "resistor.glb.bin"
        }
    ]
}
