[gd_scene load_steps=5 format=2]

[ext_resource path="res://src/Characters/NPC.tscn" type="PackedScene" id=1]
[ext_resource path="res://models/diode/diode.glb.gltf" type="PackedScene" id=2]
[ext_resource path="res://src/Characters/NPCs/Diode_collider.tres" type="Shape" id=3]
[ext_resource path="res://scenes/minigames/DiodeMinigame.tscn" type="PackedScene" id=4]

[node name="Diode" instance=ExtResource( 1 )]
character_name = "Diode"
my_minigame = ExtResource( 4 )

[node name="CollisionShape" parent="." index="0"]
shape = ExtResource( 3 )

[node name="diodeglb" parent="Model" index="0" instance=ExtResource( 2 )]
