[gd_scene load_steps=3 format=2]

[ext_resource path="res://default_env.tres" type="Environment" id=1]
[ext_resource path="res://scenes/singletons/SystemS.gd" type="Script" id=2]

[node name="SystemS" type="Spatial"]
pause_mode = 2
script = ExtResource( 2 )

[node name="WorldEnvironment" type="WorldEnvironment" parent="."]
environment = ExtResource( 1 )
