[gd_scene load_steps=6 format=2]

[ext_resource path="res://sounds/talking1.ogg" type="AudioStream" id=1]
[ext_resource path="res://sounds/coin.wav" type="AudioStream" id=2]
[ext_resource path="res://sounds/click.wav" type="AudioStream" id=3]
[ext_resource path="res://sounds/task_completed_2.mp3" type="AudioStream" id=4]

[sub_resource type="GDScript" id=1]
script/source = "extends Node2D


# Declare member variables here. Examples:
# var a = 2
# var b = \"text\"


# Called when the node enters the scene tree for the first time.
func talk():
	$AudioStreamPlayerTalk.pitch_scale = rand_range(0.8, 1.2)
	$AudioStreamPlayerTalk.play()

func coin():
	$AudioStreamPlayerCoin.play()
	
func click():
	$AudioStreamPlayerClick.play()

func win():
	$AudioStreamPlayerWin.play()
"

[node name="Talkiewalkie" type="Node2D"]
script = SubResource( 1 )

[node name="AudioStreamPlayerTalk" type="AudioStreamPlayer" parent="."]
stream = ExtResource( 1 )
volume_db = -8.915

[node name="AudioStreamPlayerCoin" type="AudioStreamPlayer" parent="."]
stream = ExtResource( 2 )
bus = "Coins"

[node name="AudioStreamPlayerClick" type="AudioStreamPlayer" parent="."]
pause_mode = 2
stream = ExtResource( 3 )

[node name="AudioStreamPlayerWin" type="AudioStreamPlayer" parent="."]
pause_mode = 2
stream = ExtResource( 4 )
